Flu Occurence
…
# in other words:
# d <- ds1 %>% select(date,month_name,calendar_year = year)
# d %>% 
#   mutate(
#     move_to_next_year = (month_name %in% c("Oct","Nov","Dec"))
#     ,fiscal_year = calendar_year + move_to_next_year
#   )
# after we have done testing the logic, let's express it more succinctly
ds3 <- ds2 %>% 
  dplyr::mutate(
    fiscal_year = year + (month_name == c("Oct","Nov","Dec"))
  )
ds3

## # A tibble: 48 x 8
##    date                test_flu_positi~ total_specimen_~ test_flu_positi~  year
##    <dttm>                         <dbl>            <dbl>            <dbl> <dbl>
##  1 2012-10-27 00:00:00              995            18986           0.0524  2012
##  2 2012-11-24 00:00:00             3228            24757           0.130   2012
##  3 2012-12-29 00:00:00            22368            66683           0.335   2012
##  4 2013-01-26 00:00:00            24615            75614           0.326   2013
##  5 2013-02-23 00:00:00            11795            51611           0.229   2013
##  6 2013-03-30 00:00:00             7301            43392           0.168   2013
##  7 2013-04-27 00:00:00             2381            22482           0.106   2013
##  8 2013-05-25 00:00:00              882            15875           0.0556  2013
##  9 2013-06-29 00:00:00              625            15038           0.0416  2013
## 10 2013-07-27 00:00:00              312             9163           0.0340  2013
## # ... with 38 more rows, and 3 more variables: month <dbl>, month_name <ord>,
## #   fiscal_year <dbl>
…
