Life Expectancy
…
# let us study the workflow on a subset so we can trace operations easier
d1 <- ds1 %>% 
  filter(region == "Africa") %>% 
  select(country, life_expectancy, mortality_neonatal, mortality_underfive, health_spending) %>% 
  tidyr::gather("measure", "value", 2:5) # pivot to longer

d1 %>% print()

## # A tibble: 112 x 3
##    country                          measure         value
##    <chr>                            <chr>           <dbl>
##  1 Algeria                          life_expectancy  75.6
##  2 Angola                           life_expectancy  52.4
##  3 Burundi                          life_expectancy  59.6
##  4 Central African Republic         life_expectancy  52.5
##  5 Chad                             life_expectancy  53.1
##  6 Congo                            life_expectancy  64.7
##  7 Democratic Republic of the Congo life_expectancy  59.8
##  8 Ethiopia                         life_expectancy  64.8
##  9 Gambia                           life_expectancy  61.1
## 10 Ghana                            life_expectancy  62.4
## # ... with 102 more rows
…
